03-AED-Transformación-de-datos-dplyr
…
set.seed(123)

df <- tibble(
  x = runif(1000, -1, 1),
  y = runif(1000, -1, 1)
)

*df
```
]
 
.panel2-solucion-auto[

```
## # A tibble: 1,000 × 2
##          x       y
##      <dbl>   <dbl>
##  1 -0.425  -0.453 
##  2  0.577   0.188 
##  3 -0.182  -0.680 
##  4  0.766   0.707 
##  5  0.881   0.695 
##  6 -0.909  -0.0442
##  7  0.0562  0.547 
##  8  0.785  -0.409 
##  9  0.103  -0.869 
## 10 -0.0868 -0.119 
## # … with 990 more rows
```
…
df <- tibble(
  x = runif(1000, -1, 1),
  y = runif(1000, -1, 1)
)

df |>
* mutate(r = x^2 + y^2)
```
]
 
.panel2-solucion-auto[

```
## # A tibble: 1,000 × 3
##          x       y      r
##      <dbl>   <dbl>  <dbl>
##  1 -0.425  -0.453  0.385 
##  2  0.577   0.188  0.368 
##  3 -0.182  -0.680  0.495 
##  4  0.766   0.707  1.09  
##  5  0.881   0.695  1.26  
##  6 -0.909  -0.0442 0.828 
##  7  0.0562  0.547  0.303 
##  8  0.785  -0.409  0.783 
##  9  0.103  -0.869  0.765 
## 10 -0.0868 -0.119  0.0217
## # … with 990 more rows
```
…
df <- tibble(
  x = runif(1000, -1, 1),
  y = runif(1000, -1, 1)
)

df |>
  mutate(r = x^2 + y^2) |>
* mutate(r2 = if_else(r > 1, "A", "B"))
```
]
 
.panel2-solucion-auto[

```
## # A tibble: 1,000 × 4
##          x       y      r r2   
##      <dbl>   <dbl>  <dbl> <chr>
##  1 -0.425  -0.453  0.385  B    
##  2  0.577   0.188  0.368  B    
##  3 -0.182  -0.680  0.495  B    
##  4  0.766   0.707  1.09   A    
##  5  0.881   0.695  1.26   A    
##  6 -0.909  -0.0442 0.828  B    
##  7  0.0562  0.547  0.303  B    
##  8  0.785  -0.409  0.783  B    
##  9  0.103  -0.869  0.765  B    
## 10 -0.0868 -0.119  0.0217 B    
## # … with 990 more rows
```
…
df |>
  mutate(r = x^2 + y^2) |>
  mutate(r2 = if_else(r > 1, "A", "B")) |>
* mutate(es_b = if_else(r2 == "B", 1, 0))
```
]
 
.panel2-solucion-auto[

```
## # A tibble: 1,000 × 5
##          x       y      r r2     es_b
##      <dbl>   <dbl>  <dbl> <chr> <dbl>
##  1 -0.425  -0.453  0.385  B         1
##  2  0.577   0.188  0.368  B         1
##  3 -0.182  -0.680  0.495  B         1
##  4  0.766   0.707  1.09   A         0
##  5  0.881   0.695  1.26   A         0
##  6 -0.909  -0.0442 0.828  B         1
##  7  0.0562  0.547  0.303  B         1
##  8  0.785  -0.409  0.783  B         1
##  9  0.103  -0.869  0.765  B         1
## 10 -0.0868 -0.119  0.0217 B         1
## # … with 990 more rows
```
…
df |>
  mutate(r = x^2 + y^2) |>
  mutate(r2 = if_else(r > 1, "A", "B")) |>
  mutate(es_b = if_else(r2 == "B", 1, 0)) |>
* mutate(conv = cummean(es_b))
```
]
 
.panel2-solucion-auto[

```
## # A tibble: 1,000 × 6
##          x       y      r r2     es_b  conv
##      <dbl>   <dbl>  <dbl> <chr> <dbl> <dbl>
##  1 -0.425  -0.453  0.385  B         1 1    
##  2  0.577   0.188  0.368  B         1 1    
##  3 -0.182  -0.680  0.495  B         1 1    
##  4  0.766   0.707  1.09   A         0 0.75 
##  5  0.881   0.695  1.26   A         0 0.6  
##  6 -0.909  -0.0442 0.828  B         1 0.667
##  7  0.0562  0.547  0.303  B         1 0.714
##  8  0.785  -0.409  0.783  B         1 0.75 
##  9  0.103  -0.869  0.765  B         1 0.778
## 10 -0.0868 -0.119  0.0217 B         1 0.8  
## # … with 990 more rows
```
…
df |>
  mutate(r = x^2 + y^2) |>
  mutate(r2 = if_else(r > 1, "A", "B")) |>
  mutate(es_b = if_else(r2 == "B", 1, 0)) |>
  mutate(conv = cummean(es_b)) |>
* mutate(fila = row_number())
```
]
 
.panel2-solucion-auto[

```
## # A tibble: 1,000 × 7
##          x       y      r r2     es_b  conv  fila
##      <dbl>   <dbl>  <dbl> <chr> <dbl> <dbl> <int>
##  1 -0.425  -0.453  0.385  B         1 1         1
##  2  0.577   0.188  0.368  B         1 1         2
##  3 -0.182  -0.680  0.495  B         1 1         3
##  4  0.766   0.707  1.09   A         0 0.75      4
##  5  0.881   0.695  1.26   A         0 0.6       5
##  6 -0.909  -0.0442 0.828  B         1 0.667     6
##  7  0.0562  0.547  0.303  B         1 0.714     7
##  8  0.785  -0.409  0.783  B         1 0.75      8
##  9  0.103  -0.869  0.765  B         1 0.778     9
## 10 -0.0868 -0.119  0.0217 B         1 0.8      10
## # … with 990 more rows
```
…
set.seed(123)

df <- tibble(
  x = runif(10000, -1, 1),
  y = runif(10000, -1, 1)
)

*df
```
]
 
.panel2-solucion2-auto[

```
## # A tibble: 10,000 × 2
##          x      y
##      <dbl>  <dbl>
##  1 -0.425  -0.379
##  2  0.577  -0.351
##  3 -0.182   0.741
##  4  0.766  -0.343
##  5  0.881  -0.749
##  6 -0.909  -0.288
##  7  0.0562  0.861
##  8  0.785   0.750
##  9  0.103   0.640
## 10 -0.0868 -0.956
## # … with 9,990 more rows
```
…
df |>
* mutate(
*   r = x^2 + y^2,
*   ri = r < 1,
*   conv = cummean(ri),
*   row = row_number()
*   )
```
]
 
.panel2-solucion2-auto[

```
## # A tibble: 10,000 × 6
##          x      y     r ri     conv   row
##      <dbl>  <dbl> <dbl> <lgl> <dbl> <int>
##  1 -0.425  -0.379 0.324 TRUE  1         1
##  2  0.577  -0.351 0.456 TRUE  1         2
##  3 -0.182   0.741 0.581 TRUE  1         3
##  4  0.766  -0.343 0.704 TRUE  1         4
##  5  0.881  -0.749 1.34  FALSE 0.8       5
##  6 -0.909  -0.288 0.909 TRUE  0.833     6
##  7  0.0562  0.861 0.745 TRUE  0.857     7
##  8  0.785   0.750 1.18  FALSE 0.75      8
##  9  0.103   0.640 0.421 TRUE  0.778     9
## 10 -0.0868 -0.956 0.922 TRUE  0.8      10
## # … with 9,990 more rows
```
…
set.seed(123)

*tibble(
* x = runif(10000, -1, 1),
* y = runif(10000, -1, 1)
*) 
```
]
 
.panel2-solucion3-auto[

```
## # A tibble: 10,000 × 2
##          x      y
##      <dbl>  <dbl>
##  1 -0.425  -0.379
##  2  0.577  -0.351
##  3 -0.182   0.741
##  4  0.766  -0.343
##  5  0.881  -0.749
##  6 -0.909  -0.288
##  7  0.0562  0.861
##  8  0.785   0.750
##  9  0.103   0.640
## 10 -0.0868 -0.956
## # … with 9,990 more rows
```
…
.panel2-solucion3-auto[

```
## # A tibble: 10,000 × 6
##          x      y     r ri     conv   row
##      <dbl>  <dbl> <dbl> <lgl> <dbl> <int>
##  1 -0.425  -0.379 0.324 TRUE  1         1
##  2  0.577  -0.351 0.456 TRUE  1         2
##  3 -0.182   0.741 0.581 TRUE  1         3
##  4  0.766  -0.343 0.704 TRUE  1         4
##  5  0.881  -0.749 1.34  FALSE 0.8       5
##  6 -0.909  -0.288 0.909 TRUE  0.833     6
##  7  0.0562  0.861 0.745 TRUE  0.857     7
##  8  0.785   0.750 1.18  FALSE 0.75      8
##  9  0.103   0.640 0.421 TRUE  0.778     9
## 10 -0.0868 -0.956 0.922 TRUE  0.8      10
## # … with 9,990 more rows
```
…
