05-Lectura-de-datos-readr-readxl-httr-rvest
…
url <- "https://www.reclamos.cl/empresa/universidad_de_santiago_usach"

read_html(url) |>
* html_table()
```
]
 
.panel2-rvest-auto[

```
## [[1]]
## # A tibble: 46 × 3
##    Fecha    `Empresa y razón de reclamo`                                      ``
##    <chr>    <chr>                                                          <int>
##  1 17-03-22 Universidad de Santiago USACH - Dejaron a decenas sin trabajo…    69
##  2 14-03-22 Universidad de Santiago USACH - Profesor con pistola en clases    84
##  3 08-03-22 Usach - Guía para reclamar y demandar a la USACH                  75
##  4 09-07-21 Usach - Diplomados                                               160
##  5 12-04-21 Usach - No cumplen con las clases lnline                         280
##  6 25-09-20 Usach - mala experiencia reclamo                                 426
##  7 15-09-20 Usach - No se hacen clases ni las recuperan y te cobran todo …   315
##  8 27-07-20 Usach - Demanda colectiva por NO PRESTACION DE SERVICIOS         344
##  9 15-01-20 No Resuelto Usach - Leyes que aportan a la segregación social    473
## 10 30-08-19 Usach - Depto. de ingeniería industrial No apoya al emprendim…   462
## # … with 36 more rows
```
…
url <- "https://www.reclamos.cl/empresa/universidad_de_santiago_usach"

read_html(url) |>
  html_table() |>
* first()
```
]
 
.panel2-rvest-auto[

```
## # A tibble: 46 × 3
##    Fecha    `Empresa y razón de reclamo`                                      ``
##    <chr>    <chr>                                                          <int>
##  1 17-03-22 Universidad de Santiago USACH - Dejaron a decenas sin trabajo…    69
##  2 14-03-22 Universidad de Santiago USACH - Profesor con pistola en clases    84
##  3 08-03-22 Usach - Guía para reclamar y demandar a la USACH                  75
##  4 09-07-21 Usach - Diplomados                                               160
##  5 12-04-21 Usach - No cumplen con las clases lnline                         280
##  6 25-09-20 Usach - mala experiencia reclamo                                 426
##  7 15-09-20 Usach - No se hacen clases ni las recuperan y te cobran todo …   315
##  8 27-07-20 Usach - Demanda colectiva por NO PRESTACION DE SERVICIOS         344
##  9 15-01-20 No Resuelto Usach - Leyes que aportan a la segregación social    473
## 10 30-08-19 Usach - Depto. de ingeniería industrial No apoya al emprendim…   462
## # … with 36 more rows
```
…
url <- "https://www.reclamos.cl/empresa/universidad_de_santiago_usach"

read_html(url) |>
  html_table() |>
  first() |>
* set_names(c("fecha", "reclamo", "cantidad"))
```
]
 
.panel2-rvest-auto[

```
## # A tibble: 46 × 3
##    fecha    reclamo                                                     cantidad
##    <chr>    <chr>                                                          <int>
##  1 17-03-22 Universidad de Santiago USACH - Dejaron a decenas sin trab…       69
##  2 14-03-22 Universidad de Santiago USACH - Profesor con pistola en cl…       84
##  3 08-03-22 Usach - Guía para reclamar y demandar a la USACH                  75
##  4 09-07-21 Usach - Diplomados                                               160
##  5 12-04-21 Usach - No cumplen con las clases lnline                         280
##  6 25-09-20 Usach - mala experiencia reclamo                                 426
##  7 15-09-20 Usach - No se hacen clases ni las recuperan y te cobran to…      315
##  8 27-07-20 Usach - Demanda colectiva por NO PRESTACION DE SERVICIOS         344
##  9 15-01-20 No Resuelto Usach - Leyes que aportan a la segregación soc…      473
## 10 30-08-19 Usach - Depto. de ingeniería industrial No apoya al empren…      462
## # … with 36 more rows
```
…
url <- "https://www.reclamos.cl/empresa/universidad_de_santiago_usach"

read_html(url) |>
  html_table() |>
  first() |>
  set_names(c("fecha", "reclamo", "cantidad")) |>
* mutate(fecha = dmy(fecha))
```
]
 
.panel2-rvest-auto[

```
## # A tibble: 46 × 3
##    fecha      reclamo                                                   cantidad
##    <date>     <chr>                                                        <int>
##  1 2022-03-17 Universidad de Santiago USACH - Dejaron a decenas sin tr…       69
##  2 2022-03-14 Universidad de Santiago USACH - Profesor con pistola en …       84
##  3 2022-03-08 Usach - Guía para reclamar y demandar a la USACH                75
##  4 2021-07-09 Usach - Diplomados                                             160
##  5 2021-04-12 Usach - No cumplen con las clases lnline                       280
##  6 2020-09-25 Usach - mala experiencia reclamo                               426
##  7 2020-09-15 Usach - No se hacen clases ni las recuperan y te cobran …      315
##  8 2020-07-27 Usach - Demanda colectiva por NO PRESTACION DE SERVICIOS       344
##  9 2020-01-15 No Resuelto Usach - Leyes que aportan a la segregación s…      473
## 10 2019-08-30 Usach - Depto. de ingeniería industrial No apoya al empr…      462
## # … with 36 more rows
```
…
url <- "https://www.reclamos.cl/empresa/universidad_de_santiago_usach"

read_html(url) |>
  html_table() |>
  first() |>
  set_names(c("fecha", "reclamo", "cantidad")) |>
  mutate(fecha = dmy(fecha)) |>
* arrange(fecha, cantidad)
```
]
 
.panel2-rvest-auto[

```
## # A tibble: 46 × 3
##    fecha      reclamo                                                   cantidad
##    <date>     <chr>                                                        <int>
##  1 2012-06-24 "Usach - Dicom"                                               2218
##  2 2012-08-29 "Usach - Estafa De Grado Academico A C. Civil"                2564
##  3 2012-10-30 "Usach - Robo Pase Escolar"                                   2106
##  4 2012-11-09 "Universidad De Santiago De Chile - Cambio De Tv.lcd.32\…     1568
##  5 2013-01-20 "Usach - Su política de no dar soluciones"                    2919
##  6 2013-02-28 "Usach - Loa.usach.cl"                                        5876
##  7 2013-03-04 "Universidad de Santiago USACH - Censura en la Radio"         1759
##  8 2013-06-28 "Universidad de Santiago USACH - Las Cuotas Del Credito …     1398
##  9 2013-07-23 "Universidad de Santiago USACH - Burocracia para renunci…     5860
## 10 2013-08-20 "universidad de santiago USACH - Falta De Oportunidades.…     2707
## # … with 36 more rows
```
…
